<?xml version="1.0" encoding="UTF-8"?>
<svg width="7px" height="13px" viewBox="0 0 7 13" version="1.1" xmlns="http://www.w3.org/2000/svg" xmlns:xlink="http://www.w3.org/1999/xlink">
    <!-- Generator: Sketch 54.1 (76490) - https://sketchapp.com -->
    <title>facebook</title>
    <desc>Created with Sketch.</desc>
    <g id="Page-1" stroke="none" stroke-width="1" fill="none" fill-rule="evenodd">
        <g id="main-copy-2" transform="translate(-682.000000, -46.000000)">
            <g id="facebook" transform="translate(674.000000, 40.000000)">
                <rect id="Rectangle" x="0" y="0" width="23.4666667" height="23.4666667"></rect>
                <circle id="Oval" cx="11.7333333" cy="11.7333333" r="11.7333333"></circle>
                <path d="M12.4345097,18.6666667 L9.8331956,18.6666667 L9.8331956,12.5325591 L8.53333333,12.5325591 L8.53333333,10.4189514 L9.8331956,10.4189514 L9.8331956,9.15001262 C9.8331956,7.42583523 10.5667773,6.4 12.6522793,6.4 L14.3880783,6.4 L14.3880783,8.51438189 L13.303204,8.51438189 C12.4913364,8.51438189 12.4376888,8.80974501 12.4376888,9.36098628 L12.4341123,10.4189514 L14.4,10.4189514 L14.1699113,12.5325591 L12.4341123,12.5325591 L12.4341123,18.6666667 L12.4345097,18.6666667 Z" id="Shape" fill="#999999"></path>
            </g>
        </g>
    </g>
</svg>