<?xml version="1.0" encoding="UTF-8"?>
<svg width="48px" height="40px" viewBox="0 0 48 40" version="1.1" xmlns="http://www.w3.org/2000/svg" xmlns:xlink="http://www.w3.org/1999/xlink">
    <!-- Generator: Sketch 55.2 (78181) - https://sketchapp.com -->
    <title>Group 15</title>
    <desc>Created with Sketch.</desc>
    <defs>
        <polygon id="path-1" points="0 0.746595745 47.9998933 0.746595745 47.9998933 39.1485617 0 39.1485617"></polygon>
    </defs>
    <g id="Page-1" stroke="none" stroke-width="1" fill="none" fill-rule="evenodd">
        <g id="index-copy" transform="translate(-611.000000, -1557.000000)">
            <g id="Group-15" transform="translate(611.000000, 1553.000000)">
                <rect id="Rectangle" x="0" y="0" width="48" height="48"></rect>
                <g id="Group-23" transform="translate(0.000000, 4.000000)">
                    <g id="Page-1">
                        <g id="Group-3" transform="translate(0.000000, 0.104596)">
                            <mask id="mask-2" fill="white">
                                <use xlink:href="#path-1"></use>
                            </mask>
                            <g id="Clip-2"></g>
                            <path d="M28.7552571,19.932766 C28.7844,17.4468085 26.9998286,15.2638298 24.0366857,15.2102128 C21.3015429,15.1617021 19.2495429,17.2093685 19.246969,19.9123404 C19.2444,22.6655319 21.2612571,24.7191489 24.0161143,24.6817021 C27.0529714,24.64 28.8015429,22.3897872 28.7552571,19.932766 M46.4792571,19.947234 L46.4792571,11.6178723 C46.4792571,10.9693617 46.4784,10.9676596 45.8518286,10.9668085 C44.4701143,10.9642553 43.0884,10.9649702 41.7049714,10.9649702 C41.0681143,10.9642553 41.0689714,10.9649702 41.0689714,11.6170213 C41.0698286,13.7693617 41.0715429,15.9217021 41.0715429,18.0731915 C41.0706857,21.4893617 41.0681143,24.9046809 41.0698286,28.32 C41.0698286,28.9285106 41.0766857,28.9293617 41.7066857,28.9293617 C43.1055429,28.9302128 44.5035429,28.9131915 45.9015429,28.9395745 C46.3489714,28.9489362 46.4912571,28.8255319 46.4887198,28.3685106 C46.4689714,25.5608511 46.4792571,22.7531915 46.4792571,19.947234 M1.52297143,19.9429787 C1.52297143,22.7506383 1.5324,25.5565957 1.5144,28.3642553 C1.51097143,28.8178723 1.65068571,28.9489362 2.10154286,28.9395745 C3.49954286,28.9131915 4.89754286,28.9302128 6.29554286,28.9293617 C6.92725714,28.9293617 6.93068571,28.9285106 6.93154286,28.2774468 C6.9324,25.267234 6.93154286,22.2561702 6.93154286,19.2468085 C6.93068571,16.6893617 6.9324,14.1319149 6.93068571,11.5744681 C6.93068571,10.9693617 6.9264,10.9676596 6.29897143,10.9668085 C4.9164,10.9650509 3.53382857,10.9650509 2.15211429,10.9650509 C1.52211429,10.9642553 1.52297143,10.9650509 1.52297143,11.6144681 C1.52382857,14.3906383 1.52297143,17.1668085 1.52297143,19.9429787 M35.3192571,37.6291489 L35.3192571,37.627234 C38.6192571,37.627234 41.9192571,37.6297872 45.2201143,37.626383 C45.9949714,37.6255319 46.2504,37.413617 46.4124,36.653617 C46.4526857,36.4578723 46.4741143,36.253617 46.4741143,36.0519149 C46.4784,34.3668085 46.4612571,32.6808511 46.4827868,30.9965957 C46.4869714,30.5659574 46.3558286,30.4314894 45.9186857,30.4365957 C44.1598286,30.4578723 42.3992571,30.4468085 40.6386857,30.4451064 C39.8252571,30.4451064 39.5946857,30.2221277 39.5946857,29.4289362 C39.5946857,23.092766 39.5946857,16.7574468 39.5946857,10.4212766 C39.5946857,9.68255319 39.8321143,9.45106383 40.5838286,9.45021277 C42.3752571,9.44851064 44.1666857,9.44 45.9581143,9.45446809 C46.3412571,9.45787234 46.4861143,9.34723404 46.4827868,8.95234043 C46.4664,7.21957447 46.4792571,5.48765957 46.4732571,3.75574468 C46.4724,3.54042553 46.4329714,3.32170213 46.3858286,3.1106383 C46.2486857,2.49617021 45.9726857,2.2706383 45.3315429,2.2706383 C38.6355429,2.26638298 31.9412571,2.26893617 25.2452571,2.25787234 C24.8518286,2.25787234 24.7275429,2.39489362 24.7283956,2.77531915 C24.7386857,6.28595745 24.7395429,9.79744681 24.7344,13.3089362 C24.7335429,13.6476596 24.8432571,13.7897872 25.1981143,13.8638298 C28.1158286,14.4706383 30.3144,17.1514894 30.2809714,20.0255319 C30.2484,22.7906383 28.0918286,25.3957447 25.2709714,26.0144681 C24.8209714,26.1140426 24.7301143,26.3021277 24.7309714,26.7029787 C24.7395429,30.1361702 24.7335429,33.5685106 24.7344,37.0025532 C24.7344,37.6178723 24.7438286,37.6280851 25.3704,37.6280851 C28.6866857,37.6297872 32.0029714,37.6291489 35.3192571,37.6291489 M12.6838286,37.6289362 L12.6838286,37.627234 C15.9992571,37.627234 19.3155429,37.6280851 22.6309714,37.626383 C23.2558286,37.6255319 23.2644,37.6195745 23.2652571,36.9991489 C23.2686857,33.5506383 23.2652571,30.1021277 23.2729714,26.653617 C23.2729714,26.2902128 23.1838286,26.1131915 22.7749714,26.0238298 C19.9172571,25.4034043 17.7272571,22.7838298 17.7204,20.027234 C17.7126857,17.1429787 19.8829714,14.4697872 22.7544,13.8731915 C23.1426857,13.7914894 23.2738286,13.6553191 23.2729714,13.267234 C23.2626857,9.80340426 23.2609714,6.3387234 23.2772748,2.87489362 C23.2789714,2.41361702 23.1564,2.25531915 22.6686857,2.25784202 C19.2589714,2.27659574 15.8484,2.26553191 12.4386857,2.26468085 C9.20125714,2.26382979 5.96382857,2.26297872 2.7264,2.26553191 C2.04068571,2.26638298 1.7544,2.49702128 1.60868571,3.15404255 C1.56497143,3.3506383 1.52982857,3.55319149 1.52897143,3.75319149 C1.52297143,5.48510638 1.53411429,7.21787234 1.51948034,8.94978723 C1.51611429,9.33957447 1.65325714,9.45702128 2.03982857,9.45361702 C3.83125714,9.43914894 5.62268571,9.44851064 7.41497143,9.4493617 C8.1504,9.45021277 8.41268571,9.70638298 8.41268571,10.4229787 C8.41182857,16.7582979 8.41097143,23.093617 8.41097143,29.4280851 C8.41097143,30.2034043 8.15811429,30.4476596 7.36097143,30.4476596 C5.58497143,30.4468085 3.80897143,30.4485106 2.03297143,30.4468085 C1.76725714,30.4468085 1.5264,30.4408511 1.52811429,30.8178723 C1.53668571,32.6748936 1.5084,34.5319149 1.54611429,36.3880851 C1.56411429,37.3242553 1.94382857,37.6289362 2.87811429,37.6289362 C6.1464,37.6297872 9.41554286,37.6289362 12.6838286,37.6289362 M24.0495429,0.747234043 C30.3204,0.747234043 36.5921143,0.744680851 42.8621143,0.749787234 C43.6309714,0.749787234 44.4006857,0.798297872 45.1695429,0.805106383 C46.6901143,0.821276596 47.8884,1.9012766 47.9184,3.41617021 C47.9664,5.83234043 47.9441143,8.24851064 47.9466857,10.6655319 C47.9484,12.866383 47.9432571,15.066383 47.9432571,17.267234 C47.9424,21.1217021 47.9372571,24.9770213 47.9458286,28.8306383 C47.9492571,30.3429787 47.9981143,31.8553191 47.9998933,33.3676596 C48.0015429,34.3812766 47.9689714,35.3957447 47.9286857,36.4076596 C47.8926857,37.3191489 47.4641143,38.0425532 46.7741143,38.6238298 C46.3446857,38.986383 45.8415429,39.0876596 45.2844,39.0885106 C38.5592571,39.1012766 31.8332571,39.132766 25.1064,39.1429787 C18.5372571,39.1531915 11.9672571,39.147234 5.39725714,39.1421277 C4.53411429,39.1421277 3.67011429,39.0944681 2.80782857,39.0876596 C1.35668571,39.0757447 0.133542857,38.0323404 0.0949714286,36.5948936 C0.0281142857,34.1642553 0.0589714286,31.7302128 0.0512571429,29.2987234 C0.0495428571,28.987234 0.0564,28.6740426 0.0564,28.3625532 C0.0572571429,22.5880851 0.0606857143,16.8144681 0.0546857143,11.04 C0.0521142857,9.38723404 0.00325714286,7.73446809 -0.00028556435,6.08170213 C-0.00188571429,5.19319149 0.0152571429,4.30212766 0.0821142857,3.41702128 C0.156685714,2.42808511 0.622114286,1.62978723 1.48182857,1.10468085 C1.72611429,0.955744681 2.0304,0.85787234 2.31582857,0.833191489 C3.00411429,0.773617021 3.69668571,0.750638298 4.38668571,0.750638298 C10.9412571,0.744680851 17.4949714,0.747234043 24.0495429,0.747234043" id="Fill-1" fill="#E30613" mask="url(#mask-2)"></path>
                        </g>
                        <path d="M12.6838286,37.7335319 C9.41554286,37.7335319 6.1464,37.734383 2.87811429,37.7335319 C1.94382857,37.7335319 1.56411429,37.4288511 1.54611429,36.4926809 C1.5084,34.6365106 1.53668571,32.7794894 1.52811429,30.9224681 C1.5264,30.5454468 1.76725714,30.5514043 2.03297143,30.5522553 C3.80897143,30.5531064 5.58497143,30.5522553 7.36097143,30.5522553 C8.15811429,30.5522553 8.41097143,30.308 8.41097143,29.5326809 C8.41097143,23.1982128 8.41182857,16.8628936 8.41268571,10.5275745 C8.41268571,9.81097872 8.1504,9.55480851 7.41497143,9.55395745 C5.62268571,9.55310638 3.83125714,9.54374468 2.03982857,9.55906383 C1.65325714,9.56161702 1.51611429,9.44417021 1.51948034,9.05438298 C1.53411429,7.32246809 1.52297143,5.58970213 1.52897143,3.85778723 C1.52982857,3.65778723 1.56497143,3.45523404 1.60868571,3.2586383 C1.7544,2.60161702 2.04068571,2.37097872 2.7264,2.37012766 C5.96382857,2.36757447 9.20125714,2.36842553 12.4386857,2.3692766 C15.8484,2.37012766 19.2589714,2.38119149 22.6686857,2.36245445 C23.1564,2.36076596 23.2789714,2.51821277 23.2772748,2.97948936 C23.2609714,6.44331915 23.2626857,9.908 23.2729714,13.3718298 C23.2738286,13.7599149 23.1426857,13.8960851 22.7544,13.9777872 C19.8829714,14.574383 17.7126857,17.2475745 17.7204,20.1318298 C17.7272571,22.8884255 19.9172571,25.508 22.7749714,26.1284255 C23.1838286,26.2177872 23.2729714,26.3948085 23.2729714,26.7582128 C23.2652571,30.2067234 23.2686857,33.655234 23.2652571,37.1037447 C23.2644,37.7241702 23.2558286,37.7301277 22.6309714,37.7309787 C19.3155429,37.7326809 15.9992571,37.7318298 12.6838286,37.7318298 L12.6838286,37.7335319 Z" id="Fill-4" fill-opacity="0.2" fill="#E30613"></path>
                        <path d="M35.3194286,37.7337447 C32.0031429,37.7337447 28.6868571,37.734383 25.3705714,37.7326809 C24.744,37.7326809 24.7337143,37.7224681 24.7337143,37.1071489 C24.7328571,33.6731064 24.7397143,30.240766 24.7302857,26.8075745 C24.7302857,26.4067234 24.8211429,26.2186383 25.2702857,26.1199149 C28.0911429,25.5003404 30.2485714,22.895234 30.2811429,20.1301277 C30.3145714,17.2560851 28.116,14.575234 25.1974286,13.9684255 C24.8425714,13.894383 24.7328571,13.7522553 24.7337143,13.4135319 C24.7397143,9.90204255 24.7388571,6.39055319 24.728567,2.87991489 C24.7277143,2.49948936 24.852,2.36246809 25.2454286,2.36246809 C31.9414286,2.37353191 38.6357143,2.37097872 45.3317143,2.37523404 C45.9728571,2.37523404 46.2488571,2.60076596 46.386,3.21523404 C46.4331429,3.42629787 46.4725714,3.64502128 46.4734286,3.86034043 C46.4794286,5.59225532 46.4665714,7.32502128 46.4821444,9.05693617 C46.4854286,9.45268085 46.3405714,9.56246809 45.9582857,9.55991489 C44.1668571,9.54459574 42.3745714,9.55310638 40.584,9.55480851 C39.8322857,9.55565957 39.5948571,9.78714894 39.5948571,10.5258723 C39.594,16.8620426 39.594,23.1973617 39.5948571,29.5335319 C39.5948571,30.3267234 39.8254286,30.5497021 40.6388571,30.5497021 C42.3994286,30.5514043 44.1591429,30.5624681 45.9188571,30.5411915 C46.356,30.5360851 46.4871429,30.6705532 46.4821444,31.1011915 C46.4614286,32.7862979 46.4785714,34.4714043 46.4742857,36.1565106 C46.4742857,36.3582128 46.4528571,36.5624681 46.4117143,36.7582128 C46.2505714,37.5182128 45.9951429,37.7301277 45.2202857,37.7309787 C41.9194286,37.734383 38.6194286,37.7318298 35.3194286,37.7318298 L35.3194286,37.7337447 Z" id="Fill-6" fill-opacity="0.2" fill="#E30613"></path>
                        <path d="M1.5234,20.0473191 C1.5234,17.2711489 1.52425714,14.4958298 1.5234,11.7188085 C1.5234,11.0693913 1.52168571,11.0685957 2.15168571,11.0693913 C3.53425714,11.0693913 4.91682857,11.0693913 6.29854286,11.0711489 C6.92682857,11.072 6.93111429,11.0737021 6.93111429,11.6788085 C6.93282857,14.2362553 6.93111429,16.7945532 6.93197143,19.352 C6.93197143,22.3613617 6.93282857,25.3715745 6.93197143,28.3817872 C6.93111429,29.0337021 6.92768571,29.0345532 6.29511429,29.0345532 C4.89797143,29.0354043 3.49997143,29.0175319 2.10197143,29.0439149 C1.65025714,29.0532766 1.51054286,28.9230638 1.51397143,28.4694468 C1.53282857,25.6617872 1.5234,22.8549787 1.5234,20.0473191" id="Fill-8" fill="#FFFFFF"></path>
                        <path d="M46.479,20.0514894 C46.479,22.8582979 46.4687143,25.6659574 46.4893198,28.473617 C46.4918571,28.9306383 46.3495714,29.0531915 45.9012857,29.0438298 C44.5032857,29.0174468 43.1052857,29.0353191 41.7072857,29.0344681 C41.0764286,29.0344681 41.0695714,29.033617 41.0695714,28.4251064 C41.0687143,25.0089362 41.0704286,21.593617 41.0712857,18.1782979 C41.0712857,16.0268085 41.0695714,13.873617 41.0687143,11.7221277 C41.0687143,11.0692255 41.0687143,11.0685106 41.7055714,11.0692255 C43.0881429,11.0692255 44.4698571,11.0685106 45.8524286,11.0710638 C46.4781429,11.0719149 46.479,11.073617 46.479,11.7229787 L46.479,20.0514894 Z" id="Fill-10" fill="#FFFFFF"></path>
                        <path d="M28.7552571,20.0373617 C28.8015429,22.494383 27.0529714,24.7445957 24.0161143,24.7862979 C21.2612571,24.8237447 19.2444,22.7701277 19.246969,20.0169362 C19.2495429,17.3139643 21.3015429,15.2662979 24.0366857,15.3148085 C26.9998286,15.3684255 28.7844,17.5514043 28.7552571,20.0373617" id="Fill-12" fill="#FFFFFF"></path>
                    </g>
                </g>
            </g>
        </g>
    </g>
</svg>