id	20210421161511
create	20210421161511
modify	20210421161511
type	
title	Фитнес центр Jump — ул. Красная Пресня. м. Краснопресненская, ул. 1905 года. Фитнес клуб в центре Москвы, аэробика, мини-футбол, баскетбол, волейбол, теннис, тренажерный зал, аренда зала
chars	UTF-8
icon	favicon.ico
source	https://www.jumpfitness.ru/
comment	
lock	
