<?xml version="1.0" encoding="UTF-8"?>
<svg width="79px" height="40px" viewBox="0 0 79 40" version="1.1" xmlns="http://www.w3.org/2000/svg" xmlns:xlink="http://www.w3.org/1999/xlink">
    <!-- Generator: Sketch 54.1 (76490) - https://sketchapp.com -->
    <title>Group 3</title>
    <desc>Created with Sketch.</desc>
    <g id="Page-1" stroke="none" stroke-width="1" fill="none" fill-rule="evenodd">
        <g id="main-copy-2" transform="translate(-64.000000, -24.000000)">
            <g id="Group-3" transform="translate(64.000000, 24.000000)">
                <path d="M27.5311254,25.9216017 C-0.512714877,27.5235592 19.3603342,43.0400998 32.8871378,31.5523426 C35.5873678,28.8661506 37.6652711,25.6321671 38.9771628,22.0740189 C40.9895427,16.8651779 42.6955521,10.321222 42.3882698,0 C42.0299258,8.01068904 41.0916662,14.8918042 36.8781603,22.3462705 C35.6047068,24.9264451 33.7345415,27.1738383 31.4191126,28.9064533 C22.7532049,34.573254 18.1485296,28.569294 27.5311254,25.9216017 Z" id="Path_3" fill="#1D1D1B"></path>
                <g id="Logo-Copy" fill="#E30613">
                    <path d="M23.7000875,36.3767348 C5.15753554,39.5363227 -9.16394767,29.233358 7.08211179,25.1629061 C15.6578502,23.3050684 25.5407118,22.9845959 35.7575758,23.0351493 L34.6093295,24.8406281 C28.9662411,24.8553036 23.3342311,25.3411607 17.7719955,26.2931358 C3.70507626,29.7731962 12.9425006,37.1196894 23.7000875,36.3767348 Z" id="Path_1"></path>
                    <path d="M37.5757576,24.8395653 L38.3713094,23.030303 C52.0857549,23.258456 65.4626112,24.2771636 78.7878788,25.4545455 C66.1758022,25.1897754 51.0539811,24.7513086 37.5757576,24.8395653 Z" id="Path_2"></path>
                    <path d="M39.6517472,0.364633097 C41.5413895,1.44643077 41.7425104,4.60908761 40.1031518,7.42122778 C38.4477037,10.2342576 35.5712284,11.6318761 33.6815861,10.5349546 C31.7919438,9.45315696 31.590823,6.29050011 33.2301815,3.47835995 C34.8856297,0.680453963 37.762105,-0.71360603 39.6517472,0.364633097 Z" id="Path_4"></path>
                    <path d="M37.3422297,27.8946143 L32.6843833,33.9905972 C31.5980051,35.8888423 32.1593005,36.6550296 33.7173479,36.969697 L38.5100862,36.969697 C38.9583643,36.9488517 39.3971993,36.8301632 39.7974444,36.6215147 L39.5430508,36.969697 L41.5582823,36.969697 L48.4848485,27.8955453 L46.4705223,27.8955453 L41.8977755,33.8872597 C41.1286352,34.6899668 40.1096366,35.1891896 39.0188733,35.2976772 L35.1260182,35.2976772 C34.4995401,35.2976772 34.007954,35.1580319 34.6009354,34.0613508 L39.3266805,27.8787879 L37.3449456,27.8787879 L37.3422297,27.8946143 Z" id="Path_5"></path>
                    <path d="M42.4242424,36.969697 L49.3415386,27.8798905 L51.3736978,27.8798905 L51.0012558,28.3862786 C51.7871562,28.0628568 52.6239869,27.8912091 53.4700399,27.8798905 L55.5320306,27.8798905 C56.3206115,27.8523626 57.0397721,28.3424762 57.3246336,29.1015635 C58.2420457,28.3274272 59.3866403,27.8967925 60.5717491,27.8798905 L63.3967035,27.8798905 C65.8320401,28.0365631 65.7642412,29.7814105 64.9334786,30.8809162 L60.2996495,36.969697 L58.3551769,36.969697 L63.0902524,30.7587489 C63.4283429,30.3055176 63.5295893,29.5725138 62.4303431,29.5547949 L60.2327546,29.5547949 C59.0150863,29.5547949 57.7133473,30.1143397 56.2416591,31.9104788 L52.3861614,36.969697 L50.3738899,36.969697 L55.0917897,30.7764678 C55.4642317,30.2532934 55.379257,29.5725138 54.3478097,29.5547949 L52.2686433,29.5547949 C50.6974657,29.693679 49.2639176,30.5350081 48.3453467,31.857322 L44.4582096,36.9687644 L42.4242424,36.969697 Z" id="Path_6"></path>
                    <path d="M58.7878788,39.9828068 L68.3045477,27.8787879 L70.2515093,27.8787879 L69.9301837,28.2850905 C70.6008859,28.0275015 71.3117112,27.8899683 72.0301145,27.8787879 L75.2306986,27.8787879 C78.2448233,27.8959811 77.8719045,29.7066974 76.7694409,31.2477519 L74.7039056,33.8719785 C73.3493325,35.5675506 71.3338394,36.602699 69.1662434,36.7160971 L65.220727,36.7160971 C64.6830478,36.7116243 64.1748283,36.469836 63.8322383,36.055516 L63.7643526,36.1405771 L60.7330302,40 L58.7878788,40 L58.7878788,39.9828068 Z M67.5931056,31.2305587 L67.5931056,31.2305587 L67.5759079,31.2640402 L65.7982079,33.5154456 C65.0025876,34.7008721 65.3917989,35.0393068 66.2218146,35.0727884 L69.7102341,35.0727884 C71.0414062,34.9773868 72.2708714,34.3260262 73.0972775,33.2783603 L75.0442392,30.7898696 C75.4678459,30.0958069 75.4506482,29.5709616 74.2296109,29.5030936 L70.9104531,29.5030936 C69.6025163,29.5530759 68.3855495,30.1854675 67.5931056,31.226939 L67.5931056,31.2305587 Z" id="Path_7"></path>
                </g>
            </g>
        </g>
    </g>
</svg>