<?xml version="1.0" encoding="UTF-8"?>
<svg width="48px" height="45px" viewBox="0 0 48 45" version="1.1" xmlns="http://www.w3.org/2000/svg" xmlns:xlink="http://www.w3.org/1999/xlink">
    <!-- Generator: Sketch 55.2 (78181) - https://sketchapp.com -->
    <title>Group 17</title>
    <desc>Created with Sketch.</desc>
    <defs>
        <polygon id="path-1" points="0 44.9131765 47.8952727 44.9131765 47.8952727 -0.000352941176 0 -0.000352941176"></polygon>
    </defs>
    <g id="Page-1" stroke="none" stroke-width="1" fill="none" fill-rule="evenodd">
        <g id="index-copy" transform="translate(-857.000000, -1555.000000)">
            <g id="Group-17" transform="translate(857.000000, 1553.000000)">
                <rect id="Rectangle" x="0" y="0" width="48" height="48"></rect>
                <g id="Group-16" transform="translate(0.000000, 2.000000)">
                    <g id="Group-19">
                        <g id="Page-1">
                            <path d="M47.7072,42.2637353 C47.4418909,41.9734412 47.0072727,41.9478529 46.6608,42.2046176 C46.5709091,42.2707941 46.4888727,42.3502059 46.4016,42.4207941 C44.7189818,43.7760882 42.4699636,43.7134412 40.8432,42.2963824 C40.4722909,41.9725588 40.056,41.6531471 39.6048,41.4837353 C37.9710545,40.8669706 36.4324364,41.0363824 35.0701091,42.2249118 C33.1928727,43.8616765 31.0957091,43.8546176 29.208,42.2160882 C29.0142545,42.0475588 28.8117818,41.8834412 28.5936,41.7519706 C26.9746909,40.7787353 24.9778909,40.9613824 23.5361455,42.2037353 C21.6056727,43.8669706 19.5783273,43.8660882 17.6382545,42.2055 C17.4427636,42.0387353 17.2411636,41.8728529 17.0221091,41.7440294 C15.3700364,40.7681471 13.3994182,40.9552059 11.9314909,42.2452059 C11.0482909,43.0225588 10.0603636,43.4540294 8.86996364,43.4213824 C7.70836364,43.3905 6.8016,42.8460882 5.9568,42.1040294 C4.47578182,40.8052059 1.91083636,40.8281471 0.506618182,42.1269706 C0.137454545,42.4684412 0.0763636364,42.9625588 0.361745455,43.2916765 C0.640145455,43.6110882 1.09483636,43.6199118 1.48058182,43.3119706 C2.76261818,42.2884412 3.90763636,42.3122647 5.10676364,43.3878529 C7.34007273,45.3916765 10.7410909,45.3872647 12.9656727,43.3763824 C14.1578182,42.2999118 15.4424727,42.2919706 16.6258909,43.3560882 C18.8914909,45.3925588 22.2637091,45.4013824 24.5205818,43.3755 C25.7336727,42.2875588 26.9956364,42.2919706 28.2165818,43.3905 C30.4254545,45.3793235 33.8116364,45.3872647 36.0405818,43.4081471 C37.3226182,42.2725588 38.5121455,42.2831471 39.8090182,43.4222647 C40.9269818,44.4052059 42.2273455,44.9196176 43.7179636,44.9125588 C45.1858909,44.9046176 46.7925818,44.2702059 47.6496,43.3587353 C47.9533091,43.0357941 47.9786182,42.5602059 47.7072,42.2637353" id="Fill-1" fill="#E30613"></path>
                            <path d="M1.344,37.8972353 C3.25876364,36.3045882 5.30181818,36.3372353 7.16072727,37.9907647 C8.76916364,39.4219412 11.2128,39.4087059 12.8299636,37.9616471 C14.6757818,36.309 16.8672,36.3195882 18.7191273,37.9898824 C20.2909091,39.4087059 22.7607273,39.4104706 24.3482182,37.9934118 C26.2533818,36.294 28.4212364,36.3045882 30.3089455,38.0242941 C31.7908364,39.3734118 34.3226182,39.3892941 35.8315636,38.0595882 C37.8501818,36.2798824 39.9089455,36.2798824 41.8970182,38.0578235 C43.3623273,39.369 45.9796364,39.369 47.3847273,38.0587059 C47.7504,37.7163529 47.8176,37.2195882 47.5426909,36.8922353 C47.2669091,36.5648824 46.8349091,36.5542941 46.4299636,36.8648824 C45.0807273,37.8998824 44.0482909,37.8725294 42.7618909,36.7678235 C40.4692364,34.8010588 37.2549818,34.8037059 34.9719273,36.774 C33.6733091,37.8945882 32.5239273,37.9007647 31.2322909,36.7942941 C28.8907636,34.7878235 25.6887273,34.794 23.3681455,36.8092941 C22.1306182,37.884 20.9472,37.8875294 19.7035636,36.8207647 C17.3323636,34.7869412 14.1460364,34.7842941 11.8036364,36.8137059 C10.5547636,37.8963529 9.34952727,37.8919412 8.10501818,36.7801765 C6.98356364,35.7795882 5.67272727,35.319 4.19083636,35.3198824 C2.66705455,35.3348824 1.3536,35.8131176 0.348218182,36.7228235 C-0.0497454545,37.0828235 -0.113454545,37.5813529 0.192872727,37.9210588 C0.503563636,38.2642941 0.912,38.2563529 1.344,37.8972353" id="Fill-3" fill="#E30613"></path>
                            <mask id="mask-2" fill="white">
                                <use xlink:href="#path-1"></use>
                            </mask>
                            <g id="Clip-6"></g>
                            <path d="M16.1105455,25.1467059 L30.9469091,25.1467059 L30.9469091,20.0731765 L16.1105455,20.0731765 L16.1105455,25.1467059 Z M16.1105455,18.3084706 L30.9469091,18.3084706 L30.9469091,13.2349412 L16.1105455,13.2349412 L16.1105455,18.3084706 Z M16.1105455,26.9114118 L30.9469091,26.9114118 L30.9469091,32.3528824 L32.6923636,32.3528824 L32.6923636,6.17611765 C32.6923636,3.74435294 34.6507636,1.76435294 37.056,1.76435294 L43.056,1.76435294 L43.056,-0.000352941176 L37.056,-0.000352941176 C33.6881455,-0.000352941176 30.9469091,2.77111765 30.9469091,6.17611765 L30.9469091,11.4702353 L16.1105455,11.4702353 L16.1105455,6.17611765 C16.1105455,3.74435294 18.0689455,1.76435294 20.4741818,1.76435294 L26.4741818,1.76435294 L26.4741818,-0.000352941176 L20.4741818,-0.000352941176 C17.1063273,-0.000352941176 14.3650909,2.77111765 14.3650909,6.17611765 L14.3650909,32.3528824 L16.1105455,32.3528824 L16.1105455,26.9114118 Z" id="Fill-5" fill="#E30613" mask="url(#mask-2)"></path>
                        </g>
                    </g>
                    <path d="M0.546282746,43.4456233 C0.418876547,43.4108033 0.300057906,43.3341869 0.192872727,43.2157742 C-0.0476161855,42.9490807 -0.0600377077,42.5844983 0.138294433,42.2659068 C-0.0482360631,42.0072348 -0.0437715274,41.6760161 0.138294433,41.3835539 C-0.0482360631,41.1248818 -0.0437715274,40.7936631 0.138294433,40.501201 C-0.0482360631,40.2425289 -0.0437715274,39.9113102 0.138294433,39.618848 C-0.0482360631,39.360176 -0.0437715274,39.0289573 0.138294433,38.7364951 C-0.0482360631,38.477823 -0.0437715274,38.1466043 0.138294433,37.8541421 C-0.103864663,37.5183268 -0.0241215524,37.0602418 0.348218182,36.7234213 C1.3536,35.8137154 2.66705455,35.3354801 4.19083636,35.3204801 C5.67272727,35.3195978 6.98356364,35.780186 8.10501818,36.7807742 C9.34952727,37.8925389 10.5547636,37.8969507 11.8036364,36.8143036 C14.1460364,34.7848919 17.3323636,34.7875389 19.7035636,36.8213625 C20.9472,37.8881272 22.1306182,37.8845978 23.3681455,36.8098919 C25.6887273,34.7945978 28.8907636,34.7884213 31.2322909,36.7948919 C32.5239273,37.9013625 33.6733091,37.895186 34.9719273,36.7745978 C37.2549818,34.8043036 40.4692364,34.8016566 42.7618909,36.7684213 C44.0482909,37.8731272 45.0807273,37.9004801 46.4299636,36.8654801 C46.8349091,36.5548919 47.2669091,36.5654801 47.5426909,36.8928331 C47.7586888,37.1500364 47.7634908,37.5118236 47.5782625,37.8211259 C47.7586041,38.074324 47.7527104,38.4121781 47.5782625,38.7034788 C47.7586041,38.9566769 47.7527104,39.2945311 47.5782625,39.5858318 C47.7586041,39.8390299 47.7527104,40.176884 47.5782625,40.4681847 C47.7586041,40.7213828 47.7527104,41.0592369 47.5782625,41.3505377 C47.7468506,41.587234 47.7526876,41.8979112 47.6102179,42.1753785 C47.6444923,42.2015706 47.6769469,42.2312309 47.7072,42.2643331 C47.9786182,42.5608036 47.9533091,43.0363919 47.6496,43.3593331 C46.7925818,44.2708036 45.1858909,44.9052154 43.7179636,44.9131566 C42.2273455,44.9202154 40.9269818,44.4058036 39.8090182,43.4228625 C38.5121455,42.2837448 37.3226182,42.2731566 36.0405818,43.4087448 C33.8116364,45.3878625 30.4254545,45.3799213 28.2165818,43.3910978 C26.9956364,42.2925684 25.7336727,42.2881566 24.5205818,43.3760978 C22.2637091,45.4019801 18.8914909,45.3931566 16.6258909,43.356686 C15.4424727,42.2925684 14.1578182,42.3005095 12.9656727,43.3769801 C10.7410909,45.3878625 7.34007273,45.3922742 5.10676364,43.3884507 C3.90763636,42.3128625 2.76261818,42.2890389 1.48058182,43.3125684 C1.17134207,43.5594349 0.817793047,43.6027258 0.546282746,43.4456233 Z" id="Combined-Shape" fill-opacity="0.2" fill="#E30613"></path>
                </g>
            </g>
        </g>
    </g>
</svg>