<?xml version="1.0" encoding="UTF-8"?>
<svg width="9px" height="10px" viewBox="0 0 9 10" version="1.1" xmlns="http://www.w3.org/2000/svg" xmlns:xlink="http://www.w3.org/1999/xlink">
    <!-- Generator: Sketch 63.1 (92452) - https://sketch.com -->
    <title>Group 74</title>
    <desc>Created with Sketch.</desc>
    <g id="Page-1" stroke="none" stroke-width="1" fill="none" fill-rule="evenodd">
        <g id="Group-74" transform="translate(-8.000000, -7.000000)">
            <path d="M14.7349271,10.8781376 C14.7349271,10.9193101 14.7349608,10.9508325 14.7349271,10.9823385 C14.7338461,11.9310573 14.7630319,12.8809559 14.7242864,13.828233 C14.6708467,15.1347899 14.0094883,16.1031857 12.7965728,16.6623475 C11.6129781,17.2080092 10.4479624,17.0848523 9.38220875,16.3469599 C8.55842,15.7766243 8.09740975,14.9774565 8.01238592,13.9964288 C7.87853333,12.4521269 8.84070116,11.0683041 10.3591215,10.5968774 C10.6824114,10.4965104 11.0153454,10.4473099 11.3556265,10.4500132 C11.5336631,10.4514222 11.6653369,10.5652895 11.6667388,10.7384987 C11.6709443,11.2619112 11.6710963,11.7853892 11.6665361,12.3088017 C11.665016,12.4828137 11.5353859,12.5915037 11.3461513,12.598434 C10.7250584,12.6211911 10.2541844,13.0659287 10.2165875,13.6652963 C10.1883306,14.1157027 10.476253,14.5612758 10.9111346,14.7400556 C11.3575351,14.9235866 11.8780823,14.8193039 12.1991933,14.4838625 C12.4184076,14.2548501 12.5190039,13.9845506 12.5188181,13.6731441 C12.5175345,11.5711877 12.5204395,9.46923128 12.5148152,7.36729123 C12.5142072,7.14242392 12.6481611,6.99438012 12.8974562,7.0001636 C13.3893919,7.0115667 13.8817836,7.0034895 14.3740065,7.00353865 C14.6209032,7.00355504 14.7272928,7.10311924 14.7368018,7.34291217 C14.7710715,8.2052558 15.3607153,8.92555209 16.2113422,9.13329836 C16.357271,9.16894945 16.5104288,9.1824333 16.6612219,9.19224718 C16.8850978,9.20682874 16.9994763,9.31579723 16.999679,9.53542173 C17,10.0261486 17.000135,10.5168754 16.9996621,11.0076022 C16.9994594,11.2304707 16.8716872,11.3504163 16.6421026,11.3459272 C15.9910132,11.3332134 15.3730787,11.1913299 14.7931973,10.90078 C14.7790942,10.8937186 14.7636568,10.8891967 14.7349271,10.8781376" id="Fill-1" fill="#999999"></path>
            <rect id="Rectangle-Copy-3" x="0" y="0" width="24" height="24"></rect>
            <circle id="Oval-Copy-2" cx="12" cy="12" r="12"></circle>
        </g>
    </g>
</svg>